,Sample,File,N_input,N_surviving,N_dropped,N_umi,N_unmapped,N_mapped_once,N_mapped_more_than_once,N_mapped,umidedup_N_dedupl_positions,umidedup_N_mean_uniq_UMI,umidedup_N_max_uniq_UMI,umidedup_N_dedupl,Final_number_of_DNA_breaks
0,CSB 0nM R2,o28841113-13_Emma_Vakil_S7_R1_001.fastq.gz,26244101,15615872,10628229,15327438,485519,10130601,4711318,14841919,3035986,1.97,389525,5967978,5967566
1,CSB 20nM R1,o28841114-14_Emma_Vakil_S8_R1_001.fastq.gz,39392062,24470544,14921518,24007303,1216539,15007069,7783695,22790764,4440569,1.89,358947,8377247,8376803
2,CSB 20nM R2,o28841115-15_Emma_Vakil_S9_R1_001.fastq.gz,5640421,5066571,573850,4971385,100296,3633651,1237438,4871089,757184,2.04,185299,1546908,1546817
3,CSB 50nM R1,o28841116-16_Emma_Vakil_S10_R1_001.fastq.gz,26035749,15287408,10748341,14985836,248098,10272245,4465493,14737738,3454655,1.94,490168,6714439,6713978
4,CSB 50nM R2,o28841117-17_Emma_Vakil_S11_R1_001.fastq.gz,24580667,12022169,12558498,11801023,590504,7701184,3509335,11210519,1986599,2.84,602098,5651753,5651558
5,HAP1 0nM R1,o304482_04-HAP-1_wt_DMSO_2h-4_S10_R1_001.fastq.gz,17294837,14677639,2617198,13935038,647686,8076282,5211070,13287352,1129451,1.72,40744,1940181,1940097
6,HAP1 0nM R2,o304482_05-HAP-1_wt_DMSO_2h-5_S13_R1_001.fastq.gz,22494920,19101158,3393762,18181087,602141,10720640,6858306,17578946,2703175,1.56,101334,4207371,4207199
7,HAP1 0nM R3,o304482_06-HAP-1_wt_DMSO_2h-6_S7_R1_001.fastq.gz,24819648,20733723,4085925,19660899,602487,12157063,6901349,19058412,1493896,2.15,118774,3211520,3211351
8,HAP1 50nM R1,o304482_01-HAP-1_wt_ET743_2h-1_S12_R1_001.fastq.gz,12330003,10538673,1791330,10030616,296923,6229898,3503795,9733693,5434283,1.18,28923,6416181,6416088
9,HAP1 50nM R2,o304482_02-HAP-1_wt_ET743_2h-2_S18_R1_001.fastq.gz,15299378,12941771,2357607,12306500,291672,7785028,4229800,12014828,5813150,1.2,39495,6957251,6957116
10,HAP1 50nM R3,o304482_03-HAP-1_wt_ET743_2h-3_S2_R1_001.fastq.gz,16725146,14256379,2468767,13511731,304596,8238937,4968198,13207135,6503360,1.2,38885,7820135,7819998
11,Nb.BsrDI,20220525.B-o28326_1_13-13-Emma-Vakil_R1.fastq.gz,53283342,44889837,8393505,43951081,2368702,28118209,13464170,41582379,4743145,6.27,84546,29721654,29721644
12,WT 0nM R1,o28841111-11_Emma_Vakil_S5_R1_001.fastq.gz,36171881,21234975,14936906,20761470,370301,14746929,5644240,20391169,4338547,2.0,561799,8683703,8683438
13,WT 0nM R2,o28841112-12_Emma_Vakil_S6_R1_001.fastq.gz,42633954,26510419,16123535,25897495,414772,18158315,7324408,25482723,5960728,1.59,563523,9487319,9486990
14,WT 20nM R1,o28841109-9_Emma_Vakil_S3_R1_001.fastq.gz,3538327,3162639,375688,3089020,35933,2330494,722593,3053087,1269422,1.44,115359,1829206,1829146
15,WT 20nM R2,o28841110-10_Emma_Vakil_S4_R1_001.fastq.gz,30415904,19738767,10677137,19273366,321952,13648839,5302575,18951414,5715250,1.58,510464,9007140,9006730
16,WT 50nM R1,o28841107-7_Emma_Vakil_S1_R1_001.fastq.gz,25955953,16792585,9163368,16405409,257252,11980758,4167399,16148157,3099767,2.6,523838,8048741,8048393
17,WT 50nM R2,o28841108-8_Emma_Vakil_S2_R1_001.fastq.gz,30512394,18932607,11579787,18485837,357633,12951499,5176705,18128204,4065749,3.76,552092,15283166,15282696
18,XPA 0nM R1,20221013.B-o296061_18-10_U2OS_XPA_ko_DMSO_R1.fastq.gz,17596211,15302460,2293751,14982798,469579,9958660,4554559,14513219,2698654,2.3,505023,6211647,6211304
19,XPA 0nM R2,20221013.B-o296061_19-11_U2OS_XPA_ko_DMSO_R1.fastq.gz,19376521,13716855,5659666,13378735,256930,8764342,4357463,13121805,2943977,3.75,723205,11033565,11032773
20,XPA 0nM R3,20221013.B-o296061_20-12_U2OS_XPA_ko_DMSO_R1.fastq.gz,26675191,23533680,3141511,23047945,476451,15405538,7165956,22571494,3656839,2.5,609836,9133409,9132720
21,XPA 50nM R1,20221013.B-o296061_15-7_U2OS_XPA_ko_50nM_ET743_R1.fastq.gz,24227550,21775867,2451683,21316117,491734,14758306,6066077,20824383,3693330,1.89,486560,6981663,6981094
22,XPA 50nM R2,20221013.B-o296061_16-8_U2OS_XPA_ko_50nM_ET743_R1.fastq.gz,27026750,24142426,2884324,23665934,459924,16346454,6859556,23206010,4332425,2.27,644955,9839491,9838592
23,XPA 50nM R3,20221013.B-o296061_17-9_U2OS_XPA_ko_50nM_ET743_R1.fastq.gz,21967552,19221660,2745892,18816692,454968,12602347,5759377,18361724,2296428,2.56,491532,5871955,5871408
24,XPC 0nM R1,20221013.B-o296061_12-4_U2OS_XPC_ko_DMSO_R1.fastq.gz,16076444,14020336,2056108,13666927,350165,9806701,3510061,13316762,5103421,1.57,652975,8035146,8034551
25,XPC 0nM R2,20221013.B-o296061_13-5_U2OS_XPC_ko_DMSO_R1.fastq.gz,18301309,16328744,1972565,15953420,384098,11369112,4200210,15569322,5536642,1.57,663187,8705909,8705255
26,XPC 0nM R3,20221013.B-o296061_14-6_U2OS_XPC_ko_DMSO_R1.fastq.gz,20738489,17848836,2889653,17409618,405889,12466941,4536788,17003729,4803390,1.69,653915,8121752,8121027
27,XPC 50nM R1,20221013.B-o296061_09-1_U2OS_XPC_ko_50nM_ET743_R1.fastq.gz,22102188,19629533,2472655,19141008,427453,13714780,4998775,18713555,5054945,1.57,481042,7959777,7959212
28,XPC 50nM R2,20221013.B-o296061_10-2_U2OS_XPC_ko_50nM_ET743_R1.fastq.gz,26360622,23692938,2667684,23127940,428710,16401943,6297287,22699230,9861043,1.52,650950,15004217,15003098
29,XPC 50nM R3,20221013.B-o296061_11-3_U2OS_XPC_ko_50nM_ET743_R1.fastq.gz,19140183,17003383,2136800,16578154,345202,11848626,4384326,16232952,8170507,1.47,596286,12000394,11999266
